3.001387291717529138e+02
2.926757156372070412e+01
1.753422054290771470e+01
1.584481705665588436e+01
1.454377894401550364e+01
1.365752257347106990e+01
1.278833045959472692e+01
1.205612240791320744e+01
1.143974659919738812e+01
1.066927869796752937e+01
1.030678322792053159e+01
9.919761648178100799e+00
9.366488552093505504e+00
9.145584297180175071e+00
8.875012955665589232e+00
8.534500651359557821e+00
8.578068943023682280e+00
8.200013294219971272e+00
8.103200459480286000e+00
8.061159386634827229e+00
7.730700020790099991e+00
7.685694651603698802e+00
7.649744768142699769e+00
7.509451646804809144e+00
7.476065697669983301e+00
7.339934844970702699e+00
7.302004728317260884e+00
7.162398328781128143e+00
7.179929251670837509e+00
7.160855941772460653e+00
6.762202854156494247e+00
6.819692597389221511e+00
6.658868298530578933e+00
6.654665441513061275e+00
6.696207170486450089e+00
6.547860765457153676e+00
6.612415761947631587e+00
6.538643116950988876e+00
6.517033610343933248e+00
6.521133379936218333e+00
6.350656194686889577e+00
6.287544574737548686e+00
6.261192197799682724e+00
6.239905624389648686e+00
6.203660593032837234e+00
6.199096002578735387e+00
6.125899991989135707e+00
6.165499114990234730e+00
6.091131505966186133e+00
6.078927760124206436e+00
