2.415270481491088788e+02
2.740011379241943246e+01
1.918517831802368079e+01
1.729665191650390454e+01
1.590909355163574190e+01
1.487052573204040584e+01
1.386768417358398509e+01
1.315604690551757727e+01
1.232901376724243114e+01
1.187640738487243652e+01
1.138161549568176234e+01
1.093035391807556067e+01
1.070948248863220265e+01
1.033234475135803265e+01
1.009501849174499455e+01
9.909922800064087767e+00
9.797777881622314666e+00
9.607837448120116974e+00
9.309265260696411914e+00
9.340604867935180522e+00
9.188713688850402406e+00
9.161290955543517356e+00
8.877944974899291353e+00
8.722091851234436533e+00
8.649302029609680531e+00
8.602262058258055788e+00
8.517198457717896076e+00
8.583851971626280886e+00
8.483774580955504518e+00
8.519293088912963441e+00
8.335898408889770295e+00
8.194364995956421538e+00
8.139915571212767986e+00
8.128903555870056863e+00
8.064935588836670277e+00
8.017149114608765004e+00
8.022472176551818990e+00
7.963462529182433691e+00
7.925691857337951340e+00
7.880715169906616246e+00
7.788079147338867081e+00
7.815181126594543670e+00
7.782756271362305078e+00
7.821582841873168768e+00
7.802415218353271342e+00
7.744383807182312118e+00
7.729633665084838512e+00
7.720065188407898127e+00
7.682326440811157120e+00
7.701063895225525258e+00
