2.446396678924560675e+01
9.251586250305176407e+01
1.994974563598632855e+01
9.238212409765624907e+05
1.667166110992431527e+01
1.602699708938598633e+01
1.093754902832031221e+05
2.224944223403930721e+01
1.681979972839355497e+01
1.221577577590942454e+01
1.174301055908203040e+01
1.147939849853515604e+01
1.103429958343505923e+01
1.112444072723388722e+01
1.059181398391723583e+01
1.071681838989257862e+01
1.028864999771118249e+01
1.003156904220580969e+01
1.027681997299194272e+01
1.105988588333129918e+01
9.719062747955321768e+00
9.906881103515624787e+00
1.005394567489624080e+01
9.790897579193115874e+00
9.461310653686522798e+00
9.297711887359618288e+00
9.227048549652099751e+00
9.076285181045532724e+00
9.207192554473877522e+00
9.032926101684569886e+00
9.247230129241943430e+00
9.042954006195067507e+00
9.030263433456420685e+00
8.993112220764160725e+00
8.843880481719970987e+00
9.078671579360962696e+00
8.807948608398437074e+00
8.795913448333740448e+00
8.797606964111327699e+00
8.627956752777100391e+00
8.722906074523926634e+00
8.633109626770020029e+00
8.832052364349365803e+00
8.692800140380859020e+00
8.422804660797119425e+00
8.547177743911742454e+00
8.639938516616821218e+00
8.721327104568480593e+00
8.580201301574707173e+00
8.404572343826293590e+00
