2.786784500122070085e+02
2.846051416397094869e+01
1.837602048873901239e+01
1.630463581085205149e+01
1.511313911437988367e+01
1.410995454788207937e+01
1.310577877998352037e+01
1.243253614425659137e+01
1.163353864669799798e+01
1.125014435768127363e+01
1.068838168144226053e+01
1.020190909385681088e+01
9.957208328247070028e+00
9.568582677841186879e+00
9.441477203369140980e+00
9.244711961746215678e+00
8.811704797744750906e+00
8.747290954589843182e+00
8.532260646820068573e+00
8.430342140197753409e+00
8.345170459747315306e+00
8.309248137474060769e+00
8.280881052017212696e+00
8.147205934524535564e+00
8.072112402915955442e+00
8.034486250877380442e+00
7.982376775741577113e+00
7.869739513397217223e+00
7.832835502624512003e+00
7.893211355209350799e+00
7.914066977500915812e+00
7.679824848175048402e+00
7.655402908325195099e+00
7.608539023399353063e+00
7.674914417266845312e+00
7.423851075172424707e+00
7.330648698806762731e+00
7.362579107284545898e+00
7.205767154693603516e+00
7.169507308006286550e+00
7.171865839958190492e+00
7.165641694068908940e+00
7.050947833061218084e+00
7.074324002265930389e+00
7.025767602920532262e+00
7.051692070960998926e+00
7.083212528228759908e+00
6.992894740104675044e+00
6.983685021400451554e+00
6.968180799484253285e+00
